^C:\USERS\VANIA\DOCUMENTS\VISUAL STUDIO 2015\PROJECTS\CONSOLEAPPLICATION3\CONSOLEAPPLICATION3\STDAFX.CPP
C:\USERS\VANIA\DOCUMENTS\VISUAL STUDIO 2015\PROJECTS\CONSOLEAPPLICATION3\CONSOLEAPPLICATION3\DEBUG\CONSOLEAPPLICATION3.PCH
C:\USERS\VANIA\DOCUMENTS\VISUAL STUDIO 2015\PROJECTS\CONSOLEAPPLICATION3\CONSOLEAPPLICATION3\DEBUG\VC140.PDB
C:\USERS\VANIA\DOCUMENTS\VISUAL STUDIO 2015\PROJECTS\CONSOLEAPPLICATION3\CONSOLEAPPLICATION3\DEBUG\VC140.IDB
C:\USERS\VANIA\DOCUMENTS\VISUAL STUDIO 2015\PROJECTS\CONSOLEAPPLICATION3\CONSOLEAPPLICATION3\DEBUG\STDAFX.OBJ
^C:\USERS\VANIA\DOCUMENTS\VISUAL STUDIO 2015\PROJECTS\CONSOLEAPPLICATION3\CONSOLEAPPLICATION3\CONSOLEAPPLICATION3.CPP
C:\USERS\VANIA\DOCUMENTS\VISUAL STUDIO 2015\PROJECTS\CONSOLEAPPLICATION3\CONSOLEAPPLICATION3\DEBUG\VC140.PDB
C:\USERS\VANIA\DOCUMENTS\VISUAL STUDIO 2015\PROJECTS\CONSOLEAPPLICATION3\CONSOLEAPPLICATION3\DEBUG\VC140.IDB
C:\USERS\VANIA\DOCUMENTS\VISUAL STUDIO 2015\PROJECTS\CONSOLEAPPLICATION3\CONSOLEAPPLICATION3\DEBUG\CONSOLEAPPLICATION3.OBJ
