^C:\USERS\VANIA\DOCUMENTS\VISUAL STUDIO 2015\PROJECTS\LAB 6\LAB 6\STDAFX.CPP
/c /ZI /nologo /W3 /WX- /sdl /Od /Oy- /D WIN32 /D _DEBUG /D _CONSOLE /D _UNICODE /D UNICODE /Gm /EHsc /RTC1 /MDd /GS /fp:precise /Zc:wchar_t /Zc:forScope /Zc:inline /Yc"stdafx.h" /Fp"DEBUG\LAB 6.PCH" /Fo"DEBUG\\" /Fd"DEBUG\VC140.PDB" /Gd /TP /analyze- C:\USERS\VANIA\DOCUMENTS\VISUAL STUDIO 2015\PROJECTS\LAB 6\LAB 6\STDAFX.CPP
^C:\USERS\VANIA\DOCUMENTS\VISUAL STUDIO 2015\PROJECTS\LAB 6\LAB 6\LAB 6.CPP
/c /ZI /nologo /W3 /WX- /sdl /Od /Oy- /D WIN32 /D _DEBUG /D _CONSOLE /D _UNICODE /D UNICODE /Gm /EHsc /RTC1 /MDd /GS /fp:precise /Zc:wchar_t /Zc:forScope /Zc:inline /Yu"stdafx.h" /Fp"DEBUG\LAB 6.PCH" /Fo"DEBUG\\" /Fd"DEBUG\VC140.PDB" /Gd /TP /analyze- C:\USERS\VANIA\DOCUMENTS\VISUAL STUDIO 2015\PROJECTS\LAB 6\LAB 6\LAB 6.CPP
^C:\USERS\STUDENT\DESKTOP\VANIA_MOSKALENKO-LAB_ROB-ATP-1-SEMESTR-2016-0EEDFE2A4DA1\LAB 6\LAB 6\STDAFX.CPP
/c /ZI /nologo /W3 /WX- /sdl /Od /Oy- /D WIN32 /D _DEBUG /D _CONSOLE /D _UNICODE /D UNICODE /Gm /EHsc /RTC1 /MDd /GS /fp:precise /Zc:wchar_t /Zc:forScope /Zc:inline /Yc"stdafx.h" /Fp"DEBUG\LAB 6.PCH" /Fo"DEBUG\\" /Fd"DEBUG\VC140.PDB" /Gd /TP /analyze- C:\USERS\STUDENT\DESKTOP\VANIA_MOSKALENKO-LAB_ROB-ATP-1-SEMESTR-2016-0EEDFE2A4DA1\LAB 6\LAB 6\STDAFX.CPP
^C:\USERS\STUDENT\DESKTOP\VANIA_MOSKALENKO-LAB_ROB-ATP-1-SEMESTR-2016-0EEDFE2A4DA1\LAB 6\LAB 6\LAB 6.CPP
/c /ZI /nologo /W3 /WX- /sdl /Od /Oy- /D WIN32 /D _DEBUG /D _CONSOLE /D _UNICODE /D UNICODE /Gm /EHsc /RTC1 /MDd /GS /fp:precise /Zc:wchar_t /Zc:forScope /Zc:inline /Yu"stdafx.h" /Fp"DEBUG\LAB 6.PCH" /Fo"DEBUG\\" /Fd"DEBUG\VC140.PDB" /Gd /TP /analyze- C:\USERS\STUDENT\DESKTOP\VANIA_MOSKALENKO-LAB_ROB-ATP-1-SEMESTR-2016-0EEDFE2A4DA1\LAB 6\LAB 6\LAB 6.CPP
