^E:\АТП\ЛАБ 3(2)\CONSOLEAPPLICATION7\STDAFX.CPP
/c /ZI /nologo /W3 /WX- /sdl /Od /D _DEBUG /D _CONSOLE /D _UNICODE /D UNICODE /Gm /EHsc /RTC1 /MDd /GS /fp:precise /Zc:wchar_t /Zc:forScope /Zc:inline /Yc"stdafx.h" /Fp"X64\DEBUG\CONSOLEAPPLICATION7.PCH" /Fo"X64\DEBUG\\" /Fd"X64\DEBUG\VC140.PDB" /Gd /TP E:\АТП\ЛАБ 3(2)\CONSOLEAPPLICATION7\STDAFX.CPP
^E:\АТП\ЛАБ 3(2)\CONSOLEAPPLICATION7\CONSOLEAPPLICATION7.CPP
/c /ZI /nologo /W3 /WX- /sdl /Od /D _DEBUG /D _CONSOLE /D _UNICODE /D UNICODE /Gm /EHsc /RTC1 /MDd /GS /fp:precise /Zc:wchar_t /Zc:forScope /Zc:inline /Yu"stdafx.h" /Fp"X64\DEBUG\CONSOLEAPPLICATION7.PCH" /Fo"X64\DEBUG\\" /Fd"X64\DEBUG\VC140.PDB" /Gd /TP E:\АТП\ЛАБ 3(2)\CONSOLEAPPLICATION7\CONSOLEAPPLICATION7.CPP
^C:\USERS\VANIA\DESKTOP\ЛАБЫ\ЛАБ 3(2)\CONSOLEAPPLICATION7\STDAFX.CPP
/c /ZI /nologo /W3 /WX- /sdl /Od /D _DEBUG /D _CONSOLE /D _UNICODE /D UNICODE /Gm /EHsc /RTC1 /MDd /GS /fp:precise /Zc:wchar_t /Zc:forScope /Zc:inline /Yc"stdafx.h" /Fp"X64\DEBUG\CONSOLEAPPLICATION7.PCH" /Fo"X64\DEBUG\\" /Fd"X64\DEBUG\VC140.PDB" /Gd /TP C:\USERS\VANIA\DESKTOP\ЛАБЫ\ЛАБ 3(2)\CONSOLEAPPLICATION7\STDAFX.CPP
^C:\USERS\VANIA\DESKTOP\ЛАБЫ\ЛАБ 3(2)\CONSOLEAPPLICATION7\CONSOLEAPPLICATION7.CPP
/c /ZI /nologo /W3 /WX- /sdl /Od /D _DEBUG /D _CONSOLE /D _UNICODE /D UNICODE /Gm /EHsc /RTC1 /MDd /GS /fp:precise /Zc:wchar_t /Zc:forScope /Zc:inline /Yu"stdafx.h" /Fp"X64\DEBUG\CONSOLEAPPLICATION7.PCH" /Fo"X64\DEBUG\\" /Fd"X64\DEBUG\VC140.PDB" /Gd /TP C:\USERS\VANIA\DESKTOP\ЛАБЫ\ЛАБ 3(2)\CONSOLEAPPLICATION7\CONSOLEAPPLICATION7.CPP
