^E:\АТП\ЛАБ 3(2)\CONSOLEAPPLICATION7\X64\DEBUG\CONSOLEAPPLICATION7.OBJ|E:\АТП\ЛАБ 3(2)\CONSOLEAPPLICATION7\X64\DEBUG\STDAFX.OBJ
E:\АТП\лаб 3(2)\X64\DEBUG\CONSOLEAPPLICATION7.ILK
E:\АТП\лаб 3(2)\X64\DEBUG\CONSOLEAPPLICATION7.EXE
E:\АТП\ЛАБ 3(2)\X64\DEBUG\CONSOLEAPPLICATION7.PDB
^C:\USERS\VANIA\DESKTOP\ЛАБЫ\ЛАБ 3(2)\CONSOLEAPPLICATION7\X64\DEBUG\CONSOLEAPPLICATION7.OBJ|C:\USERS\VANIA\DESKTOP\ЛАБЫ\ЛАБ 3(2)\CONSOLEAPPLICATION7\X64\DEBUG\STDAFX.OBJ
C:\USERS\VANIA\DESKTOP\лабы\лаб 3(2)\X64\DEBUG\CONSOLEAPPLICATION7.ILK
C:\USERS\VANIA\DESKTOP\лабы\лаб 3(2)\X64\DEBUG\CONSOLEAPPLICATION7.EXE
C:\USERS\VANIA\DESKTOP\ЛАБЫ\ЛАБ 3(2)\X64\DEBUG\CONSOLEAPPLICATION7.PDB
